\select@language {english}
\contentsline {section}{\numberline {1}Introduction}{1}{section.0.1}
\contentsline {section}{\numberline {2}Approach}{1}{section.0.2}
\contentsline {section}{\numberline {3}Interpretation}{2}{section.0.3}
\contentsline {section}{\numberline {4}Results}{2}{section.0.4}
\contentsline {section}{\numberline {5}Conclusion}{2}{section.0.5}
